﻿{
  "commands": {
    "kestrel": "Microsoft.AspNet.Hosting --server Microsoft.AspNet.Server.Kestrel --server.urls http://*:5000"
  },
  "dependencies": {
    "AutoMapper": "4.0.4",
    "LendFoundry.Configuration.Client": "1.0.7-*",
    "LendFoundry.EventHub.Abstractions": "2.0.0-*",
    "LendFoundry.EventHub.Client": "2.0.1-*",
    "LendFoundry.Foundation.Date": "1.0.3-*",
    "LendFoundry.Foundation.Documentation": "1.0.0-*",
    "LendFoundry.Foundation.Logging": "1.0.9-*",
    "LendFoundry.Foundation.Services": "1.0.11-*",
    "LendFoundry.Security.Client": "1.0.0-*",
    "LendFoundry.Security.Tokens": "1.0.7-*",
    "LendFoundry.Tenant": "",
    "LendFoundry.Tenant.Abstractions": "",
    "LendFoundry.Tenant.Mongo": "",
    "LendFoundry.Tenant.Client": "",
    "Microsoft.AspNet.Cors": "6.0.0-beta8",
    "Microsoft.AspNet.Hosting": "1.0.0-beta8",
    "Microsoft.AspNet.Mvc": "6.0.0-beta8",
    "Microsoft.AspNet.Server.Kestrel": "1.0.0-beta8"
  },
  "frameworks": {
    "dnx451": {}
  },
  "version": "1.0.0"
}